30000;30000;10;6;6;3;43211688.00;51409660.00
30000;30000;10;6;6;3;49170696.00;57314372.00
30000;30000;10;6;6;3;46236932.00;54449252.00
30000;30000;10;6;6;3;46872584.00;55102160.00
30000;30000;10;6;6;3;41635904.00;49841980.00
30000;30000;10;6;6;3;46199408.00;54409224.00
30000;30000;10;6;6;3;45698076.00;53892796.00
30000;30000;10;6;6;3;47711820.00;55922544.00
30000;30000;10;6;6;3;46111804.00;54314024.00
30000;30000;10;6;6;3;47081252.00;55248252.00
30000;30000;10;6;6;3;45474348.00;53681860.00
30000;30000;10;6;6;3;47334360.00;55545844.00
30000;30000;10;6;6;3;43752784.00;51951200.00
30000;30000;10;6;6;3;46584880.00;54800296.00
30000;30000;10;6;6;3;47398096.00;55591504.00
30000;30000;10;6;6;3;42856216.00;50731348.00
30000;30000;10;6;6;3;45794232.00;53982384.00
30000;30000;10;6;6;3;44096192.00;52285252.00
30000;30000;10;6;6;3;51064048.00;59242628.00
30000;30000;10;6;6;3;44689524.00;52887764.00
30000;30000;10;6;6;3;48511532.00;56721928.00
30000;30000;10;6;6;3;46251304.00;54473432.00
30000;30000;10;6;6;3;45894936.00;54099860.00
30000;30000;10;6;6;3;44094016.00;52270728.00
30000;30000;10;6;6;3;42842300.00;51055896.00
30000;30000;10;6;6;3;43829136.00;52007128.00
30000;30000;10;6;6;3;45289280.00;53472128.00
30000;30000;10;6;6;3;40921812.00;49114708.00
30000;30000;10;6;6;3;43778120.00;51987796.00
30000;30000;10;6;6;3;48702076.00;56898796.00
20000;20000;10;6;6;3;4637019.00;9068555.00
20000;20000;10;6;6;3;3969177.00;8396721.00
20000;20000;10;6;6;3;3998050.00;8417206.00
20000;20000;10;6;6;3;4105400.00;8515256.00
20000;20000;10;6;6;3;4093046.00;8520083.00
20000;20000;10;6;6;3;4282305.00;8679335.00
20000;20000;10;6;6;3;3993566.00;8423906.00
20000;20000;10;6;6;3;4204605.00;8621223.00
20000;20000;10;6;6;3;4102440.00;8528024.00
20000;20000;10;6;6;3;4045364.00;8457522.00
20000;20000;10;6;6;3;4256620.00;8667694.00
20000;20000;10;6;6;3;4047777.00;8467151.00
20000;20000;10;6;6;3;3959716.00;8342703.00
20000;20000;10;6;6;3;4687511.00;9087782.00
20000;20000;10;6;6;3;4031981.00;8450672.00
20000;20000;10;6;6;3;4047133.00;8445957.00
20000;20000;10;6;6;3;4168711.00;8544667.00
20000;20000;10;6;6;3;4383607.00;8785694.00
20000;20000;10;6;6;3;4366574.00;8758207.00
20000;20000;10;6;6;3;4021880.00;8433980.00
20000;20000;10;6;6;3;4009482.00;8406474.00
20000;20000;10;6;6;3;4127849.00;8483126.00
20000;20000;10;6;6;3;4163549.00;8561293.00
20000;20000;10;6;6;3;3864508.00;8251585.00
20000;20000;10;6;6;3;3761106.00;8168699.00
20000;20000;10;6;6;3;4349935.00;8748214.00
20000;20000;10;6;6;3;4328734.00;8751802.00
20000;20000;10;6;6;3;4530805.00;8974142.00
20000;20000;10;6;6;3;4086826.00;8358794.00
20000;20000;10;6;6;3;3804169.00;8244780.00
20000;19998;9;6;6;3;5225023.00;9559960.00
20000;19998;9;6;6;3;4635678.00;8984678.00
20000;19998;9;6;6;3;4484173.00;8859671.00
20000;19998;9;6;6;3;4363339.00;8567921.00
20000;19998;9;6;6;3;4162006.00;8492748.00
20000;19998;9;6;6;3;4466705.00;8811747.00
20000;19998;9;6;6;3;4879201.00;9212537.00
20000;19998;9;6;6;3;4921428.00;9239752.00
20000;19998;9;6;6;3;4613054.00;8966588.00
20000;19998;9;6;6;3;4263232.00;8611287.00
20000;19998;9;6;6;3;4438785.00;8784152.00
20000;19998;9;6;6;3;4303723.00;8631886.00
20000;19998;9;6;6;3;4571295.00;8915314.00
20000;19998;9;6;6;3;4387675.00;8725966.00
20000;19998;9;6;6;3;4451241.00;8781876.00
20000;19998;9;6;6;3;4356731.00;8696430.00
20000;19998;9;6;6;3;4584722.00;8955642.00
20000;19998;9;6;6;3;4536972.00;8849520.00
20000;19998;9;6;6;3;4139585.00;8486274.00
20000;19998;9;6;6;3;4213140.00;8552311.00
20000;19998;9;6;6;3;4620008.00;8970899.00
20000;19998;9;6;6;3;4301266.00;8639782.00
20000;19998;9;6;6;3;4617953.00;8962589.00
20000;19998;9;6;6;3;4594843.00;8920857.00
20000;19998;9;6;6;3;4344419.00;8707893.00
20000;19998;9;6;6;3;4390021.00;8747231.00
20000;19998;9;6;6;3;4280331.00;8619403.00
20000;19998;9;6;6;3;4374716.00;8723298.00
20000;19998;9;6;6;3;4583122.00;8966952.00
20000;19998;9;6;6;3;4315987.00;8505500.00
20000;19999;7;6;6;3;4854162.00;9103482.00
20000;19999;7;6;6;3;4702999.00;8957322.00
20000;19999;7;6;6;3;4590136.00;8841440.00
20000;19999;7;6;6;3;4859693.00;9093812.00
20000;19999;7;6;6;3;4684223.00;8924015.00
20000;19999;7;6;6;3;4533448.00;8767111.00
20000;19999;7;6;6;3;4726757.00;8964582.00
20000;19999;7;6;6;3;4857517.00;9107170.00
20000;19999;7;6;6;3;4633227.00;8876025.00
20000;19999;7;6;6;3;4489287.00;8721006.00
20000;19999;7;6;6;3;4640102.00;8882799.00
20000;19999;7;6;6;3;4638287.00;8886019.00
20000;19999;7;6;6;3;4561454.00;8775342.00
20000;19999;7;6;6;3;4811802.00;9040182.00
20000;19999;7;6;6;3;4731603.00;8809085.00
20000;19999;7;6;6;3;4538481.00;8780093.00
20000;19999;7;6;6;3;4598102.00;8835102.00
20000;19999;7;6;6;3;4722463.00;8922655.00
20000;19999;7;6;6;3;4636555.00;8863907.00
20000;19999;7;6;6;3;4586188.00;8818791.00
20000;19999;7;6;6;3;4640014.00;8878590.00
20000;19999;7;6;6;3;4612685.00;8843572.00
20000;19999;7;6;6;3;4594043.00;8836341.00
20000;19999;7;6;6;3;4561229.00;8811954.00
20000;19999;7;6;6;3;4577610.00;8818651.00
20000;19999;7;6;6;3;4730079.00;8977494.00
20000;19999;7;6;6;3;4692669.00;8929716.00
20000;19999;7;6;6;3;4829042.00;9069840.00
20000;19999;7;6;6;3;4983441.00;9203979.00
20000;19999;7;6;6;3;4874518.00;8971901.00
30000;30000;5;6;6;3;147883328.00;156106512.00
30000;30000;5;6;6;3;143704112.00;151879568.00
30000;30000;5;6;6;3;142014192.00;150191840.00
30000;30000;5;6;6;3;148066144.00;155943456.00
30000;30000;5;6;6;3;122717232.00;130642864.00
30000;30000;5;6;6;3;111665448.00;119890040.00
30000;30000;5;6;6;3;95127200.00;103254088.00
30000;30000;5;6;6;3;178967840.00;187176064.00
30000;30000;5;6;6;3;185744752.00;193932736.00
30000;30000;5;6;6;3;157156400.00;165366144.00
30000;30000;5;6;6;3;150015840.00;158174752.00
30000;30000;5;6;6;3;130709872.00;138919376.00
30000;30000;5;6;6;3;170253760.00;178430160.00
30000;30000;5;6;6;3;145014576.00;153230400.00
30000;30000;5;6;6;3;139267360.00;147442176.00
30000;30000;5;6;6;3;152246608.00;160452064.00
30000;30000;5;6;6;3;118935712.00;127132240.00
30000;30000;5;6;6;3;148501120.00;156680208.00
30000;30000;5;6;6;3;122470072.00;130675648.00
30000;30000;5;6;6;3;148512880.00;156495680.00
30000;30000;5;6;6;3;185168192.00;193049168.00
30000;30000;5;6;6;3;163377744.00;171551824.00
30000;30000;5;6;6;3;125439104.00;133676272.00
30000;30000;5;6;6;3;147979616.00;156132784.00
30000;30000;5;6;6;3;177772576.00;185985632.00
30000;30000;5;6;6;3;95252928.00;103381392.00
30000;30000;5;6;6;3;149329760.00;157461632.00
30000;30000;5;6;6;3;157432752.00;165603728.00
30000;30000;5;6;6;3;152669824.00;160853584.00
30000;30000;5;6;6;3;185512400.00;193455136.00
20000;20000;5;6;6;3;5902007.00;10098124.00
20000;20000;5;6;6;3;5895621.00;10074482.00
20000;20000;5;6;6;3;5890628.00;10060110.00
20000;20000;5;6;6;3;5445413.00;9620165.00
20000;20000;5;6;6;3;5831445.00;9984524.00
20000;20000;5;6;6;3;5828712.00;10013689.00
20000;20000;5;6;6;3;5817657.00;10003612.00
20000;20000;5;6;6;3;5819079.00;10006436.00
20000;20000;5;6;6;3;5904620.00;10061822.00
20000;20000;5;6;6;3;5885498.00;10071195.00
20000;20000;5;6;6;3;5817715.00;10014875.00
20000;20000;5;6;6;3;5494159.00;9694743.00
20000;20000;5;6;6;3;5824035.00;10011271.00
20000;20000;5;6;6;3;5386672.00;9555435.00
20000;20000;5;6;6;3;5813346.00;9844388.00
20000;20000;5;6;6;3;5588078.00;9775342.00
20000;20000;5;6;6;3;5885759.00;10083266.00
20000;20000;5;6;6;3;5908368.00;10102190.00
20000;20000;5;6;6;3;6145351.00;10326743.00
20000;20000;5;6;6;3;5874520.00;10031815.00
20000;20000;5;6;6;3;5789271.00;9971786.00
20000;20000;5;6;6;3;5824732.00;10002387.00
20000;20000;5;6;6;3;5822150.00;9976989.00
20000;20000;5;6;6;3;5564441.00;9748138.00
20000;20000;5;6;6;3;5889003.00;10076949.00
20000;20000;5;6;6;3;5856979.00;10053240.00
20000;20000;5;6;6;3;5816909.00;9971747.00
20000;20000;5;6;6;3;5831046.00;10009379.00
20000;20000;5;6;6;3;5835466.00;10022967.00
20000;20000;5;6;6;3;5822908.00;10014422.00
10000;10000;5;6;6;3;1558714.00;2976422.00
10000;10000;5;6;6;3;1519164.00;2928854.00
10000;10000;5;6;6;3;1563956.00;2977721.00
10000;10000;5;6;6;3;1548065.00;2964060.00
10000;10000;5;6;6;3;1566221.00;2987202.00
10000;10000;5;6;6;3;1517970.00;2920652.00
10000;10000;5;6;6;3;1559543.00;2975346.00
10000;10000;5;6;6;3;1525326.00;2947839.00
10000;10000;5;6;6;3;1531661.00;2961436.00
10000;10000;5;6;6;3;1546459.00;2953352.00
10000;10000;5;6;6;3;1514000.00;2935869.00
10000;10000;5;6;6;3;1525249.00;2925399.00
10000;10000;5;6;6;3;1526301.00;2937839.00
10000;10000;5;6;6;3;1537297.00;2955228.00
10000;10000;5;6;6;3;1374008.00;2751751.00
10000;10000;5;6;6;3;1521059.00;2927291.00
10000;10000;5;6;6;3;1571459.00;2987552.00
10000;10000;5;6;6;3;1521051.00;2929539.00
10000;10000;5;6;6;3;1405804.00;2816770.00
10000;10000;5;6;6;3;1537711.00;2958901.00
10000;10000;5;6;6;3;1539557.00;2949238.00
10000;10000;5;6;6;3;1540055.00;2941508.00
10000;10000;5;6;6;3;1573920.00;2995254.00
10000;10000;5;6;6;3;1515704.00;2925570.00
10000;10000;5;6;6;3;1538372.00;2963916.00
10000;10000;5;6;6;3;1425391.00;2842108.00
10000;10000;5;6;6;3;1556487.00;2906577.00
10000;10000;5;6;6;3;1568475.00;2991194.00
10000;10000;5;6;6;3;1502509.00;2913163.00
10000;10000;5;6;6;3;1555423.00;2970329.00
10000;10000;10;6;6;3;1160859.00;2539611.00
10000;10000;10;6;6;3;1199352.00;2563112.00
10000;10000;10;6;6;3;1179458.00;2547367.00
10000;10000;10;6;6;3;996123.00;2355927.00
10000;10000;10;6;6;3;1080959.00;2449848.00
10000;10000;10;6;6;3;1060546.00;2449734.00
10000;10000;10;6;6;3;1312630.00;2691612.00
10000;10000;10;6;6;3;1246761.00;2619111.00
10000;10000;10;6;6;3;1336389.00;2726046.00
10000;10000;10;6;6;3;1330269.00;2716934.00
10000;10000;10;6;6;3;1287794.00;2643654.00
10000;10000;10;6;6;3;1035426.00;2423496.00
10000;10000;10;6;6;3;1105906.00;2487429.00
10000;10000;10;6;6;3;1126313.00;2503224.00
10000;10000;10;6;6;3;1062225.00;2428928.00
10000;10000;10;6;6;3;1102185.00;2475504.00
10000;10000;10;6;6;3;1168543.00;2537290.00
10000;10000;10;6;6;3;1088023.00;2460971.00
10000;10000;10;6;6;3;1059541.00;2443000.00
10000;10000;10;6;6;3;1059894.00;2420188.00
10000;10000;10;6;6;3;1275632.00;2639335.00
10000;10000;10;6;6;3;1112414.00;2479767.00
10000;10000;10;6;6;3;1090947.00;2450406.00
10000;10000;10;6;6;3;994057.00;2349817.00
10000;10000;10;6;6;3;1066183.00;2371838.00
10000;10000;10;6;6;3;1059522.00;2433524.00
10000;10000;10;6;6;3;1253851.00;2634104.00
10000;10000;10;6;6;3;1203124.00;2587131.00
10000;10000;10;6;6;3;1047529.00;2422240.00
10000;10000;10;6;6;3;1235951.00;2621764.00
5000;5000;5;6;6;3;453123.00;1063778.00
5000;5000;5;6;6;3;446420.00;1068789.00
5000;5000;5;6;6;3;407761.00;1029673.00
5000;5000;5;6;6;3;403931.00;1015061.00
5000;5000;5;6;6;3;419017.00;1041773.00
5000;5000;5;6;6;3;455484.00;1069918.00
5000;5000;5;6;6;3;455535.00;1070726.00
5000;5000;5;6;6;3;454059.00;1067256.00
5000;5000;5;6;6;3;407115.00;1025816.00
5000;5000;5;6;6;3;451980.00;1067013.00
5000;5000;5;6;6;3;443055.00;1063056.00
5000;5000;5;6;6;3;458382.00;1098257.00
5000;5000;5;6;6;3;409937.00;1034446.00
5000;5000;5;6;6;3;433537.00;1054122.00
5000;5000;5;6;6;3;457097.00;1074105.00
5000;5000;5;6;6;3;452162.00;1075043.00
5000;5000;5;6;6;3;455822.00;1071226.00
5000;5000;5;6;6;3;431710.00;1044215.00
5000;5000;5;6;6;3;408526.00;1002715.00
5000;5000;5;6;6;3;464987.00;1082636.00
5000;5000;5;6;6;3;455283.00;1087137.00
5000;5000;5;6;6;3;438662.00;1059091.00
5000;5000;5;6;6;3;416677.00;1024493.00
5000;5000;5;6;6;3;459798.00;1077054.00
5000;5000;5;6;6;3;454339.00;1061993.00
5000;5000;5;6;6;3;460742.00;1072898.00
5000;5000;5;6;6;3;426337.00;1039392.00
5000;5000;5;6;6;3;423528.00;1046711.00
5000;5000;5;6;6;3;452786.00;1068923.00
5000;5000;5;6;6;3;406121.00;1028782.00
5000;5000;10;6;6;3;476510.00;1096005.00
5000;5000;10;6;6;3;485700.00;1070286.00
5000;5000;10;6;6;3;477222.00;1100059.00
5000;5000;10;6;6;3;481684.00;1090549.00
5000;5000;10;6;6;3;487327.00;1105547.00
5000;5000;10;6;6;3;473834.00;1092640.00
5000;5000;10;6;6;3;487626.00;1114964.00
5000;5000;10;6;6;3;458481.00;1071448.00
5000;5000;10;6;6;3;473065.00;1084872.00
5000;5000;10;6;6;3;475434.00;1095776.00
5000;5000;10;6;6;3;498420.00;1128325.00
5000;5000;10;6;6;3;471117.00;1087597.00
5000;5000;10;6;6;3;465838.00;1051713.00
5000;5000;10;6;6;3;472704.00;1087949.00
5000;5000;10;6;6;3;479776.00;1095907.00
5000;5000;10;6;6;3;474956.00;1092026.00
5000;5000;10;6;6;3;461384.00;1063287.00
5000;5000;10;6;6;3;464296.00;1086186.00
5000;5000;10;6;6;3;475934.00;1078938.00
5000;5000;10;6;6;3;483770.00;1113407.00
5000;5000;10;6;6;3;473277.00;1093972.00
5000;5000;10;6;6;3;510076.00;1124395.00
5000;5000;10;6;6;3;551475.00;1159518.00
5000;5000;10;6;6;3;470644.00;1078902.00
5000;5000;10;6;6;3;474644.00;1097377.00
5000;5000;10;6;6;3;483060.00;1095064.00
5000;5000;10;6;6;3;478610.00;1106831.00
5000;5000;10;6;6;3;556742.00;1168262.00
5000;5000;10;6;6;3;484473.00;1101312.00
5000;5000;10;6;6;3;479079.00;1090266.00
20000;19998;3;6;6;3;6382820.00;10432801.00
20000;19998;3;6;6;3;6381389.00;10424919.00
20000;19998;3;6;6;3;6391996.00;10463605.00
20000;19998;3;6;6;3;6834059.00;10894308.00
20000;19998;3;6;6;3;6368589.00;10271766.00
20000;19998;3;6;6;3;6796167.00;10701808.00
20000;19998;3;6;6;3;6705264.00;10774488.00
20000;19998;3;6;6;3;6361276.00;10408867.00
20000;19998;3;6;6;3;6381914.00;10452662.00
20000;19998;3;6;6;3;6392694.00;10453403.00
20000;19998;3;6;6;3;6374788.00;10439519.00
20000;19998;3;6;6;3;6383314.00;10447707.00
20000;19998;3;6;6;3;6384108.00;10429627.00
20000;19998;3;6;6;3;6821138.00;10871314.00
20000;19998;3;6;6;3;6728609.00;10798727.00
20000;19998;3;6;6;3;6364046.00;10265803.00
20000;19998;3;6;6;3;6355686.00;10270885.00
20000;19998;3;6;6;3;6508013.00;10565126.00
20000;19998;3;6;6;3;6384980.00;10459461.00
20000;19998;3;6;6;3;6495598.00;10526048.00
20000;19998;3;6;6;3;6783142.00;10834216.00
20000;19998;3;6;6;3;6387604.00;10463712.00
20000;19998;3;6;6;3;6381814.00;10429250.00
20000;19998;3;6;6;3;6736044.00;10794752.00
20000;19998;3;6;6;3;6796527.00;10861662.00
20000;19998;3;6;6;3;6381258.00;10454081.00
20000;19998;3;6;6;3;6804670.00;10859411.00
20000;19998;3;6;6;3;6380864.00;10457408.00
20000;19998;3;6;6;3;6388013.00;10459115.00
20000;19998;3;6;6;3;6390182.00;10460188.00
