26;3000;10;3;8774537.00;51625028.00
26;3000;10;3;8732121.00;51645868.00
26;3000;10;3;8625180.00;51156992.00
26;3000;10;3;8641637.00;51156828.00
26;3000;10;3;9016004.00;51220584.00
26;3000;10;3;9059335.00;51580492.00
26;3000;10;3;8788062.00;51677152.00
26;3000;10;3;8796896.00;51075344.00
26;3000;10;3;8866838.00;51149328.00
26;3000;10;3;8609766.00;51616472.00
26;3000;10;3;9099508.00;52061228.00
26;3000;10;3;8564820.00;51081808.00
26;3000;10;3;8691173.00;51037508.00
26;3000;10;3;8826230.00;51471912.00
26;3000;10;3;9257666.00;51705612.00
26;3000;10;3;8951262.00;51132260.00
26;3000;10;3;8775305.00;51054836.00
26;3000;10;3;8793190.00;51221388.00
26;3000;10;3;8838532.00;51174204.00
26;3000;10;3;9092271.00;51555320.00
26;3000;10;3;8695139.00;51213700.00
26;3000;10;3;8746222.00;51791112.00
26;3000;10;3;9094230.00;51290324.00
26;3000;10;3;9107723.00;52022048.00
26;3000;10;3;9306393.00;51812004.00
26;3000;10;3;9177936.00;51619280.00
26;3000;10;3;8876776.00;51057816.00
26;3000;10;3;8974240.00;51125452.00
26;3000;10;3;9009021.00;51747488.00
26;3000;10;3;8972581.00;51340152.00
26;2000;10;3;3504629.00;24084744.00
26;2000;10;3;3461623.00;24220290.00
26;2000;10;3;3462468.00;24255012.00
26;2000;10;3;3534293.00;24378084.00
26;2000;10;3;3461330.00;24276612.00
26;2000;10;3;3474050.00;24053994.00
26;2000;10;3;3553035.00;24383888.00
26;2000;10;3;3510950.00;24382680.00
26;2000;10;3;3406386.00;24280192.00
26;2000;10;3;3488083.00;24342608.00
26;2000;10;3;3529268.00;24221536.00
26;2000;10;3;3673249.00;24511996.00
26;2000;10;3;3545401.00;24420212.00
26;2000;10;3;3523150.00;24295404.00
26;2000;10;3;3447503.00;24118860.00
26;2000;10;3;3570479.00;24375904.00
26;2000;10;3;3453286.00;24296412.00
26;2000;10;3;3448957.00;24326156.00
26;2000;10;3;3446075.00;24087200.00
26;2000;10;3;3474795.00;24332680.00
26;2000;10;3;3490095.00;24366996.00
26;2000;10;3;3440099.00;24272660.00
26;2000;10;3;3438255.00;23873430.00
26;2000;10;3;3438172.00;24204832.00
26;2000;10;3;3476462.00;24109272.00
26;2000;10;3;3487218.00;23935552.00
26;2000;10;3;3610215.00;24349920.00
26;2000;10;3;3468302.00;24301734.00
26;2000;10;3;3510083.00;24333168.00
26;2000;10;3;3565125.00;23991868.00
26;1000;10;3;959871.00;7550254.00
26;1000;10;3;945110.00;7506436.00
26;1000;10;3;948634.00;7516546.00
26;1000;10;3;977982.00;7522539.00
26;1000;10;3;944901.00;7509512.00
26;1000;10;3;1000605.00;7563058.00
26;1000;10;3;954266.00;7509560.00
26;1000;10;3;958974.00;7580495.00
26;1000;10;3;991089.00;7605787.00
26;1000;10;3;948147.00;7531166.00
26;1000;10;3;967419.00;7540274.00
26;1000;10;3;952218.00;7520924.00
26;1000;10;3;999915.00;7596633.00
26;1000;10;3;946814.00;7419913.00
26;1000;10;3;951770.00;7535814.00
26;1000;10;3;936862.00;7525733.00
26;1000;10;3;989367.00;7301324.00
26;1000;10;3;972418.00;7542309.00
26;1000;10;3;965239.00;7498987.00
26;1000;10;3;984379.00;7592170.00
26;1000;10;3;949960.00;7523922.00
26;1000;10;3;958870.00;7450997.00
26;1000;10;3;935116.00;7537929.00
26;1000;10;3;941819.00;7508551.00
26;1000;10;3;1002046.00;7572800.00
26;1000;10;3;952265.00;7508646.00
26;1000;10;3;986271.00;7587721.00
26;1000;10;3;1000798.00;7568503.00
26;1000;10;3;993074.00;7500625.00
26;1000;10;3;941022.00;7413745.00
26;500;10;3;353417.00;2884846.00
26;500;10;3;357374.00;2890713.00
26;500;10;3;352547.00;2869611.00
26;500;10;3;366094.00;2858449.00
26;500;10;3;349898.00;2889013.00
26;500;10;3;357871.00;2875046.00
26;500;10;3;353389.00;2887960.00
26;500;10;3;347254.00;2825622.00
26;500;10;3;337564.00;2886235.00
26;500;10;3;353908.00;2889842.00
26;500;10;3;349888.00;2887645.00
26;500;10;3;351299.00;2833066.00
26;500;10;3;348984.00;2903176.00
26;500;10;3;357865.00;2874204.00
26;500;10;3;356812.00;2860070.00
26;500;10;3;349853.00;2864942.00
26;500;10;3;350095.00;2878510.00
26;500;10;3;343599.00;2864884.00
26;500;10;3;350407.00;2861233.00
26;500;10;3;351888.00;2865889.00
26;500;10;3;363290.00;2929676.00
26;500;10;3;353336.00;2876609.00
26;500;10;3;344975.00;2880526.00
26;500;10;3;343051.00;2868195.00
26;500;10;3;352263.00;2857785.00
26;500;10;3;350510.00;2854976.00
26;500;10;3;348503.00;2893807.00
26;500;10;3;348855.00;2876590.00
26;500;10;3;380324.00;2928287.00
26;500;10;3;372864.00;2926519.00
26;6666;3;3;9097799.00;26877792.00
26;6666;3;3;10481408.00;28008926.00
26;6666;3;3;8566497.00;26468604.00
26;6666;3;3;8711438.00;26573326.00
26;6666;3;3;8560246.00;26460362.00
26;6666;3;3;8560101.00;26342488.00
26;6666;3;3;8560500.00;26359844.00
26;6666;3;3;8733373.00;26545188.00
26;6666;3;3;8556964.00;26137652.00
26;6666;3;3;8687638.00;26499584.00
26;6666;3;3;8560294.00;26439616.00
26;6666;3;3;8705049.00;26587166.00
26;6666;3;3;8559342.00;26418040.00
26;6666;3;3;8557028.00;26294072.00
26;6666;3;3;8562136.00;26244600.00
26;6666;3;3;8548659.00;26311236.00
26;6666;3;3;8541072.00;26242904.00
26;6666;3;3;8862821.00;26609092.00
26;6666;3;3;8860890.00;26728436.00
26;6666;3;3;10710189.00;28420288.00
26;6666;3;3;10719493.00;28628168.00
26;6666;3;3;9504960.00;27360888.00
26;6666;3;3;8994245.00;26780652.00
26;6666;3;3;8993795.00;26769384.00
26;6666;3;3;8893095.00;26423210.00
26;6666;3;3;8440252.00;26214194.00
26;6666;3;3;10706386.00;28553354.00
26;6666;3;3;9906064.00;27700888.00
26;6666;3;3;10713790.00;28615896.00
26;6666;3;3;8861522.00;26675384.00
26;4000;5;3;5361197.00;24117438.00
26;4000;5;3;5530350.00;24075028.00
26;4000;5;3;5764304.00;24046770.00
26;4000;5;3;6369613.00;24956024.00
26;4000;5;3;5521749.00;24163552.00
26;4000;5;3;5130862.00;23564448.00
26;4000;5;3;6293917.00;24511982.00
26;4000;5;3;4995418.00;23621480.00
26;4000;5;3;5591682.00;24002012.00
26;4000;5;3;6239258.00;24645996.00
26;4000;5;3;5411136.00;24051904.00
26;4000;5;3;5730564.00;24022544.00
26;4000;5;3;5025799.00;23497604.00
26;4000;5;3;5809624.00;24542646.00
26;4000;5;3;5640501.00;24376590.00
26;4000;5;3;5876100.00;24170248.00
26;4000;5;3;4618489.00;23026176.00
26;4000;5;3;5301340.00;23925332.00
26;4000;5;3;5478262.00;23998544.00
26;4000;5;3;6520887.00;25163032.00
26;4000;5;3;4522394.00;23072678.00
26;4000;5;3;5250400.00;23817674.00
26;4000;5;3;5473421.00;24113876.00
26;4000;5;3;5933656.00;24624796.00
26;4000;5;3;4999274.00;23747354.00
26;4000;5;3;5921927.00;24365804.00
26;4000;5;3;6665809.00;25160076.00
26;4000;5;3;5064935.00;23610460.00
26;4000;5;3;5848796.00;24510052.00
26;4000;5;3;5750547.00;24388644.00
26;2858;7;3;3597347.00;22802988.00
26;2858;7;3;3305980.00;22605204.00
26;2858;7;3;3474139.00;22958128.00
26;2858;7;3;3898621.00;23300008.00
26;2858;7;3;4518699.00;24113104.00
26;2858;7;3;3464745.00;22688318.00
26;2858;7;3;3853812.00;23394404.00
26;2858;7;3;3670639.00;23125648.00
26;2858;7;3;3517969.00;22810132.00
26;2858;7;3;3700870.00;23230792.00
26;2858;7;3;4239112.00;23480992.00
26;2858;7;3;3621744.00;23218048.00
26;2858;7;3;3472433.00;22774952.00
26;2858;7;3;3489140.00;23018866.00
26;2858;7;3;3615086.00;23013158.00
26;2858;7;3;3361869.00;22570460.00
26;2858;7;3;3459027.00;23025116.00
26;2858;7;3;3455180.00;22673348.00
26;2858;7;3;3459674.00;22759784.00
26;2858;7;3;3383998.00;22679342.00
26;2858;7;3;3819385.00;23426808.00
26;2858;7;3;4160366.00;23686016.00
26;2858;7;3;3687303.00;23228836.00
26;2858;7;3;3332366.00;22844876.00
26;2858;7;3;3417426.00;22921536.00
26;2858;7;3;3411022.00;22597980.00
26;2858;7;3;3418130.00;22713444.00
26;2858;7;3;3469354.00;22904076.00
26;2858;7;3;3371407.00;22584890.00
26;2858;7;3;3494820.00;23063696.00
26;2222;9;3;3465349.00;23866800.00
26;2222;9;3;3468455.00;23602142.00
26;2222;9;3;3491017.00;23524584.00
26;2222;9;3;3583384.00;24069976.00
26;2222;9;3;3435001.00;23856496.00
26;2222;9;3;3568188.00;23969768.00
26;2222;9;3;3561348.00;23662954.00
26;2222;9;3;3509813.00;23570964.00
26;2222;9;3;3260596.00;23506000.00
26;2222;9;3;3562586.00;23704440.00
26;2222;9;3;3514069.00;23903084.00
26;2222;9;3;3596847.00;23986560.00
26;2222;9;3;3492266.00;23731628.00
26;2222;9;3;3547615.00;23780780.00
26;2222;9;3;3547617.00;23726782.00
26;2222;9;3;3583779.00;24073580.00
26;2222;9;3;3459320.00;23763938.00
26;2222;9;3;3551270.00;23880052.00
26;2222;9;3;3478690.00;23508022.00
26;2222;9;3;3581534.00;23719588.00
26;2222;9;3;3536030.00;23662592.00
26;2222;9;3;3358616.00;23825224.00
26;2222;9;3;3457824.00;23850776.00
26;2222;9;3;3626792.00;24124182.00
26;2222;9;3;3522737.00;23780284.00
26;2222;9;3;3505412.00;23961160.00
26;2222;9;3;3472434.00;23641248.00
26;2222;9;3;3394956.00;23596332.00
26;2222;9;3;3492525.00;23879752.00
26;2222;9;3;3571290.00;23877046.00
