38;3000;10;3;11005438.00;59130492.00
38;3000;10;3;10730154.00;58596896.00
38;3000;10;3;10767617.00;58692876.00
38;3000;10;3;10845404.00;58628004.00
38;3000;10;3;10957840.00;59286112.00
38;3000;10;3;10916557.00;58640304.00
38;3000;10;3;11129394.00;59386380.00
38;3000;10;3;11210605.00;59015348.00
38;3000;10;3;10873586.00;58556952.00
38;3000;10;3;10803624.00;59090868.00
38;3000;10;3;11012458.00;59299536.00
38;3000;10;3;11227224.00;59334656.00
38;3000;10;3;11074062.00;59366284.00
38;3000;10;3;10767710.00;59033668.00
38;3000;10;3;10697977.00;58318220.00
38;3000;10;3;10874480.00;58972208.00
38;3000;10;3;10875222.00;58907504.00
38;3000;10;3;10705046.00;58706904.00
38;3000;10;3;10974337.00;59307176.00
38;3000;10;3;10971596.00;58749456.00
38;3000;10;3;11111825.00;59400116.00
38;3000;10;3;10919765.00;58919380.00
38;3000;10;3;11428135.00;59605272.00
38;3000;10;3;10771738.00;58546164.00
38;3000;10;3;11185809.00;59288864.00
38;3000;10;3;11411519.00;59637088.00
38;3000;10;3;11379463.00;59442820.00
38;3000;10;3;11002621.00;59186344.00
38;3000;10;3;10909514.00;58976304.00
38;3000;10;3;11085853.00;59371692.00
